{
  "chars": "abcdefghijklmnopqrstuvwxyz ñáéíóúüý",
  "number_pattern": {
    "decimal": "(?:[\\s][+-])?[0-9]+(?:(?:[.][0-9]{3}(?:(?=[^0-9])))+)?(?:[,][0-9]+)?",
    "ordinal": "[0-9]+[.] "
  },
  "umlaut_replacers": {},
  "char_replacers": {
    "àâãåāăąǟǡǻȁȃȧ": "a",
    "æǣǽä": "ae",
    "çćĉċč": "c",
    "èêëēĕėęěȅȇȩε": "e",
    "ìîïĩīĭįıȉȋ": "i",
    "òôõøōŏőǫǭǿȍȏðο": "o",
    "ùûũūŭůűųȕȗ": "u",
    "ÿŷ": "y",
    "ďđ": "d",
    "ĝğġģǥǧǵ": "g",
    "ĥħȟ": "h",
    "ĵǰ": "j",
    "ķĸǩǩκ": "k",
    "ĺļľŀł": "l",
    "ńņňŉŋǹ": "n",
    "œö": "oe",
    "ŕŗřȑȓ": "r",
    "śŝşšș": "s",
    "ţťŧț": "t",
    "ŵ": "w",
    "źżžȥ": "z",
    "м": "m",
    "–-­/:(),.!?\"[]": " "
  },
  "special_replacers": {
    " m/s ": "metros por segundo",
    " m / s ": "metros por segundo",
    "€": "euro",
    "$": "dólar",
    "£": "libra",
    "%": "por ciento",
    "‰": "promille",
    "&": "y",
    "§": "párrafo",
    "m³": "metros cúbicos",
    "km²": "millas cuadradas",
    "m²": "metros cuadrados",
    "co2": "c o dos",
    " ft ": "pie",
    "±": "más menos",
    "°c": "grad celsius",
    "°": "grad",
    " kg ": "kilogramos",
    "α": "alfa",
    "β": "beta",
    "γ": "gamma",
    "δ": "delta",
    "@": "at",
    "½": "uno y medio",
    "⅓": "un tercio",
    "¼": "un cuarto",
    "℆": "cada una",
    "un punto cero cero cero punto cero cero cero punto cero cero cero": "un billón",
    "punto cero cero cero punto cero cero cero punto cero cero cero": "billones",
    "un punto cero cero cero punto cero cero cero": "un millón",
    "punto cero cero cero punto cero cero cero": "millones"
  }
}
