{
  "chars": "abcdefghijklmnopqrstuvwxyz äöüß",
  "number_pattern": {
    "decimal": "(?:[\\s][+-])?[0-9]+(?:(?:[.][0-9]{3}(?:(?=[^0-9])))+)?(?:[,][0-9]+)?",
    "ordinal": "[0-9]+[.] "
  },
  "umlaut_replacers": {},
  "char_replacers": {
    "àáâãåāăąǟǡǻȁȃȧ": "a",
    "æǣǽ": "ä",
    "çćĉċč": "c",
    "èéêëēĕėęěȅȇȩε": "e",
    "ìíîïĩīĭįıȉȋ": "i",
    "ñńņňŉŋǹ": "n",
    "òóôõøōŏőǫǭǿȍȏðο": "o",
    "ùúûũūŭůűųȕȗ": "u",
    "ýÿŷ": "y",
    "ďđ": "d",
    "ĝğġģǥǧǵ": "g",
    "ĥħȟ": "h",
    "ĵǰ": "j",
    "ķĸǩǩκ": "k",
    "ĺļľŀł": "l",
    "œ": "ö",
    "ŕŗřȑȓ": "r",
    "śŝşšș": "s",
    "ţťŧț": "t",
    "ŵ": "w",
    "źżžȥ": "z",
    "м": "m",
    "–-­/:(),.!?\"[]": " "
  },
  "special_replacers": {
    " m / s ": "meter pro sekunde",
    " m/s ": "meter pro sekunde",
    "€": "euro",
    "$": "dollar",
    "£": "pfund",
    "%": "prozent",
    "‰": "promille",
    "&": "und",
    "§": "paragraph",
    "m³": "kubikmeter",
    "km²": "quadratkilometer",
    "m²": "quadratmeter",
    "co2": "c o zwei",
    " ft ": "fuss",
    "±": "plus minus",
    "°c": "grad celsius",
    "°": "grad",
    " kg ": "kilogramm",
    "α": "alpha",
    "β": "beta",
    "γ": "gamma",
    "δ": "delta",
    "@": "at",
    "½": "einhalb",
    "⅓": "ein drittel",
    "¼": "ein viertel",
    "1910er": "neunzehnhundertzehner",
    "1920er": "neunzehnhundertzwanziger",
    "1930er": "neunzehnhundertdreißiger",
    "1940er": "neunzehnhundertvierziger",
    "1950er": "neunzehnhundertfünfziger",
    "1960er": "neunzehnhundertsechziger",
    "1970er": "neunzehnhundertsiebziger",
    "1980er": "neunzehnhundertachtziger",
    "1990er": "neunzehnhundertneunziger",
    "10er": "zehner",
    "20er": "zwanziger",
    "30er": "dreißiger",
    "40er": "vierziger",
    "50er": "fünfziger",
    "60er": "sechziger",
    "70er": "siebziger",
    "80er": "achtziger",
    "90er": "neunziger",
    "eins punkt null null null punkt null null null punkt null null null": "eine milliarde",
    "punkt null null null punkt null null null punkt null null null": "milliarden",
    "eins punkt null null null punkt null null null": "eine million",
    "punkt null null null punkt null null null": "millionen"
  }
}
